<svg width="25" height="25" viewBox="0 0 25 25" fill="none" xmlns="http://www.w3.org/2000/svg">
<g id="printer 2" clip-path="url(#clip0_92_87)">
<g id="Group">
<path id="Vector" d="M21.3379 6.29883H20.6543V3.66211C20.6543 1.64282 19.0115 0 16.9922 0H8.00781C5.98853 0 4.3457 1.64282 4.3457 3.66211V6.29883H3.66211C1.64282 6.29883 0 7.94165 0 9.96094V15.8203C0 17.8396 1.64282 19.4824 3.66211 19.4824H4.3457V22.8027C4.3457 24.0143 5.3314 25 6.54297 25H18.457C19.6686 25 20.6543 24.0143 20.6543 22.8027V19.4824H21.3379C23.3572 19.4824 25 17.8396 25 15.8203V9.96094C25 7.94165 23.3572 6.29883 21.3379 6.29883ZM5.81055 3.66211C5.81055 2.45054 6.79624 1.46484 8.00781 1.46484H16.9922C18.2038 1.46484 19.1895 2.45054 19.1895 3.66211V6.29883H5.81055V3.66211ZM19.1895 22.8027C19.1895 23.2066 18.8609 23.5352 18.457 23.5352H6.54297C6.13911 23.5352 5.81055 23.2066 5.81055 22.8027V15.5762H19.1895V22.8027ZM23.5352 15.8203C23.5352 17.0319 22.5495 18.0176 21.3379 18.0176H20.6543V15.5762H21.0938C21.4982 15.5762 21.8262 15.2482 21.8262 14.8438C21.8262 14.4393 21.4982 14.1113 21.0938 14.1113H3.90625C3.50176 14.1113 3.17383 14.4393 3.17383 14.8438C3.17383 15.2482 3.50176 15.5762 3.90625 15.5762H4.3457V18.0176H3.66211C2.45054 18.0176 1.46484 17.0319 1.46484 15.8203V9.96094C1.46484 8.74936 2.45054 7.76367 3.66211 7.76367H21.3379C22.5495 7.76367 23.5352 8.74936 23.5352 9.96094V15.8203Z" fill="#86939C"/>
<path id="Vector_2" d="M14.4531 17.2363H10.5469C10.1424 17.2363 9.81445 17.5643 9.81445 17.9688C9.81445 18.3732 10.1424 18.7012 10.5469 18.7012H14.4531C14.8576 18.7012 15.1855 18.3732 15.1855 17.9688C15.1855 17.5643 14.8576 17.2363 14.4531 17.2363Z" fill="#86939C"/>
<path id="Vector_3" d="M14.4531 20.3613H10.5469C10.1424 20.3613 9.81445 20.6893 9.81445 21.0938C9.81445 21.4982 10.1424 21.8262 10.5469 21.8262H14.4531C14.8576 21.8262 15.1855 21.4982 15.1855 21.0938C15.1855 20.6893 14.8576 20.3613 14.4531 20.3613Z" fill="#86939C"/>
<path id="Vector_4" d="M6.25 9.42383H3.90625C3.50176 9.42383 3.17383 9.75176 3.17383 10.1562C3.17383 10.5607 3.50176 10.8887 3.90625 10.8887H6.25C6.65449 10.8887 6.98242 10.5607 6.98242 10.1562C6.98242 9.75176 6.65449 9.42383 6.25 9.42383Z" fill="#86939C"/>
</g>
</g>
<defs>
<clipPath id="clip0_92_87">
<rect width="25" height="25" fill="white"/>
</clipPath>
</defs>
</svg>
